…
6. What are the names of the countries?


```r
fisheries %>%
  count(Country, sort = T)
```

```
## # A tibble: 204 x 2
##    Country                      n
##    <chr>                    <int>
##  1 Spain                      915
##  2 Portugal                   763
##  3 United States of America   627
##  4 Korea, Republic of         620
##  5 Japan                      611
##  6 Russian Federation         523
##  7 Un. Sov. Soc. Rep.         515
##  8 France                     489
##  9 United Kingdom             362
## 10 Taiwan Province of China   310
## # … with 194 more rows
```
…
```
## # A tibble: 17,692 x 71
##    country commname ISSCAAP_spgroup ISSCAAP_spgroup… ASFIS_spcode ASFIS_sciname
##    <chr>   <chr>    <chr>           <chr>            <chr>        <chr>        
##  1 Albania Angelsh… 38              Sharks, rays, c… 10903XXXXX   Squatinidae  
##  2 Albania Atlanti… 36              Tunas, bonitos,… 1750100101   Sarda sarda  
##  3 Albania Barracu… 37              Miscellaneous p… 17710001XX   Sphyraena spp
##  4 Albania Blue an… 45              Shrimps, prawns  2280203101   Aristeus ant…
##  5 Albania Blue wh… 32              Cods, hakes, ha… 1480403301   Micromesisti…
##  6 Albania Bluefish 37              Miscellaneous p… 1702021301   Pomatomus sa…
##  7 Albania Bogue    33              Miscellaneous c… 1703926101   Boops boops  
##  8 Albania Caramot… 45              Shrimps, prawns  2280100117   Penaeus kera…
##  9 Albania Catshar… 38              Sharks, rays, c… 10801003XX   Scyliorhinus…
## 10 Albania Common … 57              Squids, cuttlef… 3210200202   Sepia offici…
## # … with 17,682 more rows, and 65 more variables: FAO_area <chr>, unit <chr>,
## #   `1950` <chr>, `1951` <chr>, `1952` <chr>, `1953` <chr>, `1954` <chr>,
## #   `1955` <chr>, `1956` <chr>, `1957` <chr>, `1958` <chr>, `1959` <chr>,
## #   `1960` <chr>, `1961` <chr>, `1962` <chr>, `1963` <chr>, `1964` <chr>,
## #   `1965` <chr>, `1966` <chr>, `1967` <chr>, `1968` <chr>, `1969` <chr>,
## #   `1970` <chr>, `1971` <chr>, `1972` <chr>, `1973` <chr>, `1974` <chr>,
## #   `1975` <chr>, `1976` <chr>, `1977` <chr>, `1978` <chr>, `1979` <chr>,
## #   `1980` <chr>, `1981` <chr>, `1982` <chr>, `1983` <chr>, `1984` <chr>,
## #   `1985` <chr>, `1986` <chr>, `1987` <chr>, `1988` <chr>, `1989` <chr>,
…
8. Are these data tidy? Why or why not, and, how do you know? Use the appropriate pivot function to tidy the data. Remove the NA's. Put the tidy data frame into a new object `fisheries_tidy`.  


```r
fisheries_tidy <- newfisheries %>%
  pivot_longer("1950":"2012",
               names_to = "year", 
               values_to = "tonnes",
               values_drop_na = T)
fisheries_tidy
```

```
## # A tibble: 376,771 x 10
##    country commname ISSCAAP_spgroup ISSCAAP_spgroup… ASFIS_spcode ASFIS_sciname
##    <chr>   <chr>    <chr>           <chr>            <chr>        <chr>        
##  1 Albania Angelsh… 38              Sharks, rays, c… 10903XXXXX   Squatinidae  
##  2 Albania Angelsh… 38              Sharks, rays, c… 10903XXXXX   Squatinidae  
##  3 Albania Angelsh… 38              Sharks, rays, c… 10903XXXXX   Squatinidae  
##  4 Albania Angelsh… 38              Sharks, rays, c… 10903XXXXX   Squatinidae  
##  5 Albania Angelsh… 38              Sharks, rays, c… 10903XXXXX   Squatinidae  
##  6 Albania Angelsh… 38              Sharks, rays, c… 10903XXXXX   Squatinidae  
##  7 Albania Angelsh… 38              Sharks, rays, c… 10903XXXXX   Squatinidae  
##  8 Albania Angelsh… 38              Sharks, rays, c… 10903XXXXX   Squatinidae  
##  9 Albania Angelsh… 38              Sharks, rays, c… 10903XXXXX   Squatinidae  
## 10 Albania Angelsh… 38              Sharks, rays, c… 10903XXXXX   Squatinidae  
## # … with 376,761 more rows, and 4 more variables: FAO_area <chr>, unit <chr>,
## #   year <chr>, tonnes <chr>
```

9. Refocus the data only to include country, ISSCAAP_spgroupname, ASFIS_spcode, ASFIS_sciname, year, and catch.


```r
fisheries_tidy %>%
  select(country, ISSCAAP_spgroupname, ASFIS_spcode, ASFIS_sciname, year, tonnes)
```

```
## # A tibble: 376,771 x 6
##    country ISSCAAP_spgroupname     ASFIS_spcode ASFIS_sciname year  tonnes
##    <chr>   <chr>                   <chr>        <chr>         <chr> <chr> 
##  1 Albania Sharks, rays, chimaeras 10903XXXXX   Squatinidae   1995  0 0   
##  2 Albania Sharks, rays, chimaeras 10903XXXXX   Squatinidae   1996  53    
##  3 Albania Sharks, rays, chimaeras 10903XXXXX   Squatinidae   1997  20    
##  4 Albania Sharks, rays, chimaeras 10903XXXXX   Squatinidae   1998  31    
##  5 Albania Sharks, rays, chimaeras 10903XXXXX   Squatinidae   1999  30    
##  6 Albania Sharks, rays, chimaeras 10903XXXXX   Squatinidae   2000  30    
##  7 Albania Sharks, rays, chimaeras 10903XXXXX   Squatinidae   2001  16    
##  8 Albania Sharks, rays, chimaeras 10903XXXXX   Squatinidae   2002  79    
##  9 Albania Sharks, rays, chimaeras 10903XXXXX   Squatinidae   2003  1     
## 10 Albania Sharks, rays, chimaeras 10903XXXXX   Squatinidae   2004  4     
## # … with 376,761 more rows
```
…
fisheriestidy_2 <- drop_na(fisheriestidy_2)
fisheriestidy_3 <- fisheriestidy_2 %>%
  pivot_wider(
    names_from = year,
    values_from = catch,
    values_fn = list(catch = sum)) 
fisheriestidy_3 <- fisheriestidy_3 %>%
  arrange(desc(`2000`))
fisheriestidy_3
```

```
## # A tibble: 173 x 2
##    country                    `2000`
##    <chr>                       <dbl>
##  1 Peru                     10625010
##  2 Japan                     4921013
##  3 United States of America  4692229
##  4 Chile                     4297928
##  5 Indonesia                 3761769
##  6 Russian Federation        3678828
##  7 Thailand                  2795719
##  8 India                     2760632
##  9 Norway                    2698506
## 10 Iceland                   1982369
## # … with 163 more rows
```
…
fisheries_tidysardina <- fisheries_tidy4 %>%
  select(country, ASFIS_sciname, catch) %>%
  pivot_wider(
    names_from = ASFIS_sciname,
    values_from = catch,
    values_fn = list(catch = sum))

fisheries_tidysardina %>%
  arrange(desc(`Sardina pilchardus`))
```

```
## # A tibble: 36 x 2
##    country            `Sardina pilchardus`
##    <chr>                             <dbl>
##  1 Morocco                         4785190
##  2 Spain                           1425317
##  3 Russian Federation              1035139
##  4 Portugal                         926318
##  5 Ukraine                          784730
##  6 Italy                            377907
##  7 Algeria                          311733
##  8 Turkey                           273565
##  9 France                           263871
## 10 Denmark                          242017
## # … with 26 more rows
```
…
```
## # A tibble: 3,050 x 3
##    country                  species                     catch
##    <chr>                    <chr>                       <dbl>
##  1 Peru                     Engraulis ringens       278401317
##  2 Japan                    Sardinops melanostictus  62013941
##  3 Chile                    Trachurus murphyi        61379611
##  4 Japan                    Theragra chalcogramma    56710448
##  5 Chile                    Engraulis ringens        45944454
##  6 Peru                     Sardinops sagax          41879666
##  7 Japan                    Scomber japonicus        39983858
##  8 United States of America Theragra chalcogramma    36501087
##  9 United States of America Brevoortia patronus      33511931
## 10 Chile                    Sardinops sagax          28939921
## # … with 3,040 more rows
```

```r
fisheriestidymin <- fisheriestidytot %>%
  arrange(catch)
fisheriestidymin
```

```
## # A tibble: 3,050 x 3
##    country                  species                       catch
##    <chr>                    <chr>                         <dbl>
##  1 Chile                    Chaenocephalus aceratus           1
##  2 Chile                    Muraenolepis spp                  1
##  3 Chile                    Pseudochaenichthys georgianus     1
##  4 Japan                    Pseudochaenichthys georgianus     1
##  5 Japan                    Salilota australis                1
##  6 Japan                    Brevoortia tyrannus               1
##  7 Japan                    Merluccius polli                  1
##  8 Japan                    Thyrsitops lepidopoides           1
##  9 United States of America Istiophorus albicans              1
## 10 United States of America Notothenia rossii                 1
## # … with 3,040 more rows
```

Peru, Japan, United States of America, Chile, Indonesia

16. In some cases, the taxonomy of the fish being caught is unclear. Make a new data frame called `coastal_fish` that shows the taxonomic composition of "Miscellaneous coastal fishes" within the ISSCAAP_spgroupname column.


```r
coastal_fish <- fisheries_tidy %>%
  select(ISSCAAP_spgroupname, commname) %>%
  filter(ISSCAAP_spgroupname == "Miscellaneous coastal fishes")
coastal_fish
```

```
## # A tibble: 69,821 x 2
##    ISSCAAP_spgroupname          commname
##    <chr>                        <chr>   
##  1 Miscellaneous coastal fishes Bogue   
##  2 Miscellaneous coastal fishes Bogue   
##  3 Miscellaneous coastal fishes Bogue   
##  4 Miscellaneous coastal fishes Bogue   
##  5 Miscellaneous coastal fishes Bogue   
##  6 Miscellaneous coastal fishes Bogue   
##  7 Miscellaneous coastal fishes Bogue   
##  8 Miscellaneous coastal fishes Bogue   
##  9 Miscellaneous coastal fishes Bogue   
## 10 Miscellaneous coastal fishes Bogue   
## # … with 69,811 more rows
```

17. Use the data to do at least one exploratory analysis of your choice. What can you learn?
Most common fish caught in the U.S.


```r
fisheries_US <- fisheries_tidy %>%
  select(country, ASFIS_sciname, catch ) %>%
  filter(country == "United States of America")
fisheries_US %>%
  arrange(desc(catch))
```

```
## # A tibble: 18,080 x 3
##    country                  ASFIS_sciname           catch
##    <chr>                    <chr>                   <dbl>
##  1 United States of America Theragra chalcogramma 1547359
##  2 United States of America Theragra chalcogramma 1542598
##  3 United States of America Theragra chalcogramma 1524904
##  4 United States of America Theragra chalcogramma 1519928
##  5 United States of America Theragra chalcogramma 1515515
##  6 United States of America Theragra chalcogramma 1477815
##  7 United States of America Theragra chalcogramma 1442170
##  8 United States of America Theragra chalcogramma 1432190
##  9 United States of America Theragra chalcogramma 1417278
## 10 United States of America Theragra chalcogramma 1396849
## # … with 18,070 more rows
```
…
