…
```
## # A tibble: 142 x 6
##    country          `1952`     `2007`  diff_pop diff_year    growth
##    <fct>             <int>      <int>     <int>     <dbl>     <dbl>
##  1 China         556263527 1318683096 762419569        55 13862174.
##  2 India         372000000 1110396331 738396331        55 13425388.
##  3 United States 157553000  301139947 143586947        55  2610672.
##  4 Indonesia      82052000  223547000 141495000        55  2572636.
##  5 Brazil         56602560  190010647 133408087        55  2425602.
##  6 Pakistan       41346560  169270617 127924057        55  2325892.
##  7 Bangladesh     46886859  150448339 103561480        55  1882936 
##  8 Nigeria        33119096  135031164 101912068        55  1852947.
##  9 Mexico         30144317  108700891  78556574        55  1428301.
## 10 Philippines    22438691   91077287  68638596        55  1247974.
## # … with 132 more rows
```
…
